{
  "consumes": [
    "application/json"
  ],
  "produces": [
    "application/json"
  ],
  "swagger": "2.0",
  "info": {
    "description": "Documentation of your project API.\n\nSchemes:\nhttp\nhttps",
    "title": "vacancies-parser.",
    "version": "1.0.0"
  },
  "basePath": "/",
  "paths": {
    "/delete": {
      "post": {
        "description": "Удаляет вакансию из репозитория",
        "tags": [
          "vacancy"
        ],
        "summary": "Удаление вакансии по id",
        "operationId": "DeleteVacancyRequest",
        "parameters": [
          {
            "description": "Id вакансии",
            "name": "Body",
            "in": "body",
            "required": true,
            "schema": {
              "$ref": "#/definitions/DeleteQuery"
            }
          }
        ],
        "responses": {
          "200": {
            "description": "Успешная операция",
            "schema": {
              "$ref": "#/definitions/JSONResponse"
            }
          },
          "400": {
            "description": " Invalid input"
          }
        }
      }
    },
    "/get": {
      "post": {
        "description": "Возвращает вакансию",
        "tags": [
          "vacancy"
        ],
        "summary": "Поиск вакансии по id",
        "operationId": "GetVacancyRequest",
        "parameters": [
          {
            "description": "Id вакансии",
            "name": "Body",
            "in": "body",
            "required": true,
            "schema": {
              "$ref": "#/definitions/GetQuery"
            }
          }
        ],
        "responses": {
          "200": {
            "description": "Успешная операция",
            "schema": {
              "$ref": "#/definitions/JSONResponse"
            }
          },
          "400": {
            "description": " Invalid input"
          }
        }
      }
    },
    "/list": {
      "get": {
        "description": "Возвращает список вакансий",
        "tags": [
          "vacancy"
        ],
        "summary": "Список всех вакансий",
        "operationId": "none",
        "responses": {
          "200": {
            "description": "Успешная операция",
            "schema": {
              "$ref": "#/definitions/JSONResponse"
            }
          }
        }
      }
    },
    "/search": {
      "post": {
        "description": "Добавляет найденные вакансии в репозиторий",
        "tags": [
          "vacancy"
        ],
        "summary": "Поиск вакансий по ключевому слову",
        "operationId": "SearchVacanciesRequest",
        "parameters": [
          {
            "description": "Ключевое слово для вакансии",
            "name": "Body",
            "in": "body",
            "required": true,
            "schema": {
              "$ref": "#/definitions/SearchQuery"
            }
          }
        ],
        "responses": {
          "200": {
            "description": "Успешная операция",
            "schema": {
              "$ref": "#/definitions/JSONResponse"
            }
          },
          "400": {
            "description": " Invalid input"
          }
        }
      }
    }
  },
  "definitions": {
    "Company": {
      "type": "object",
      "properties": {
        "name": {
          "type": "string",
          "x-go-name": "Name"
        },
        "sameAs": {
          "type": "string",
          "x-go-name": "WebSite"
        }
      },
      "x-go-package": "go-parser/api/internal/models"
    },
    "DeleteQuery": {
      "type": "object",
      "properties": {
        "id": {
          "type": "integer",
          "format": "int64",
          "x-go-name": "Id"
        }
      },
      "x-go-package": "go-parser/api/internal/adapters/rest_api_handlers"
    },
    "GetQuery": {
      "type": "object",
      "properties": {
        "id": {
          "type": "integer",
          "format": "int64",
          "x-go-name": "Id"
        }
      },
      "x-go-package": "go-parser/api/internal/adapters/rest_api_handlers"
    },
    "Info": {
      "type": "object",
      "properties": {
        "description": {
          "type": "string",
          "x-go-name": "Description"
        },
        "title": {
          "type": "string",
          "x-go-name": "Title"
        }
      },
      "x-go-package": "go-parser/api/internal/models"
    },
    "JSONResponse": {
      "type": "object",
      "properties": {
        "data": {
          "x-go-name": "Data"
        },
        "error": {
          "type": "boolean",
          "x-go-name": "Error"
        },
        "message": {
          "type": "string",
          "x-go-name": "Message"
        }
      },
      "x-go-package": "go-parser/api/internal/adapters/rest_api_handlers"
    },
    "JobLocation": {
      "type": "object",
      "properties": {
        "address": {
          "type": "string",
          "x-go-name": "Address"
        }
      },
      "x-go-package": "go-parser/api/internal/models"
    },
    "Salary": {
      "type": "object",
      "properties": {
        "currency": {
          "type": "string",
          "x-go-name": "Currency"
        },
        "maxValue": {
          "type": "number",
          "format": "double",
          "x-go-name": "Max"
        },
        "minValue": {
          "type": "number",
          "format": "double",
          "x-go-name": "Min"
        }
      },
      "x-go-package": "go-parser/api/internal/models"
    },
    "SalaryValue": {
      "type": "object",
      "properties": {
        "maxValue": {
          "type": "number",
          "format": "double",
          "x-go-name": "Max"
        },
        "minValue": {
          "type": "number",
          "format": "double",
          "x-go-name": "Min"
        }
      },
      "x-go-package": "go-parser/api/internal/models"
    },
    "SearchQuery": {
      "type": "object",
      "properties": {
        "query": {
          "type": "string",
          "x-go-name": "Query"
        }
      },
      "x-go-package": "go-parser/api/internal/adapters/rest_api_handlers"
    },
    "Vacancy": {
      "type": "object",
      "properties": {
        "currency": {
          "type": "string",
          "x-go-name": "Currency"
        },
        "datePosted": {
          "type": "string",
          "x-go-name": "Posted"
        },
        "description": {
          "type": "string",
          "x-go-name": "Description"
        },
        "employmentType": {
          "type": "string",
          "x-go-name": "EmploymentType"
        },
        "hiringOrganization": {
          "$ref": "#/definitions/Company"
        },
        "id": {
          "type": "integer",
          "format": "int64",
          "x-go-name": "Id"
        },
        "jobLocation": {
          "type": "array",
          "items": {
            "$ref": "#/definitions/JobLocation"
          },
          "x-go-name": "Location"
        },
        "jobLocationType": {
          "type": "string",
          "x-go-name": "LocationType"
        },
        "maxValue": {
          "type": "number",
          "format": "double",
          "x-go-name": "Max"
        },
        "minValue": {
          "type": "number",
          "format": "double",
          "x-go-name": "Min"
        },
        "title": {
          "type": "string",
          "x-go-name": "Title"
        },
        "validThrough": {
          "type": "string",
          "x-go-name": "Expire"
        }
      },
      "x-go-package": "go-parser/api/internal/models"
    }
  },
  "securityDefinitions": {
    "Bearer": {
      "type": "apiKey",
      "name": "Authorization",
      "in": "header"
    }
  }
}